*** Life<Cell> 4x4 ***

Generation = 0, Population = 8.
0-0-
0-0-
0-0-
0-0-

Generation = 1, Population = 8.
1-10
---0
---0
1-10

Generation = 2, Population = 4.
--*-
0---
0---
--*-

Generation = 3, Population = 12.
10.0
100-
100-
10.0

Generation = 4, Population = 2.
--.-
*---
*---
--.-

Generation = 5, Population = 4.
1-.-
.0--
.0--
1-.-

*** Life<Cell> 4x4 ***

Generation = 0, Population = 16.
0000
0000
0000
0000

Generation = 1, Population = 8.
-11-
1--1
1--1
-11-

Generation = 2, Population = 8.
-**-
*--*
*--*
-**-

Generation = 3, Population = 8.
-**-
*--*
*--*
-**-

Generation = 4, Population = 8.
-**-
*--*
*--*
-**-

Generation = 5, Population = 8.
-**-
*--*
*--*
-**-

*** Life<Cell> 5x5 ***

Generation = 0, Population = 13.
0-0-0
-0-0-
0-0-0
-0-0-
0-0-0

Generation = 1, Population = 8.
-0-0-
0---0
-----
0---0
-0-0-

Generation = 2, Population = 0.
-----
-----
-----
-----
-----

Generation = 3, Population = 0.
-----
-----
-----
-----
-----

Generation = 4, Population = 0.
-----
-----
-----
-----
-----

Generation = 5, Population = 0.
-----
-----
-----
-----
-----

*** Life<Cell> 5x5 ***

Generation = 0, Population = 25.
00000
00000
00000
00000
00000

Generation = 1, Population = 12.
-111-
1---1
1---1
1---1
-111-

Generation = 2, Population = 12.
-*-*-
*-0-*
-0-0-
*-0-*
-*-*-

Generation = 3, Population = 12.
-*1*-
*---*
1---1
*---*
-*1*-

Generation = 4, Population = 12.
-*-*-
*-0-*
-0-0-
*-0-*
-*-*-

Generation = 5, Population = 12.
-*1*-
*---*
1---1
*---*
-*1*-

*** Life<Cell> 1x1 ***

Generation = 0, Population = 1.
0

Generation = 1, Population = 0.
-

Generation = 2, Population = 0.
-

Generation = 3, Population = 0.
-

Generation = 4, Population = 0.
-

Generation = 5, Population = 0.
-

*** Life<Cell> 3x3 ***

Generation = 0, Population = 5.
0-0
-0-
0-0

Generation = 1, Population = 4.
-0-
0-0
-0-

Generation = 2, Population = 0.
---
---
---

Generation = 3, Population = 0.
---
---
---

Generation = 4, Population = 0.
---
---
---

Generation = 5, Population = 0.
---
---
---

*** Life<Cell> 4x3 ***

Generation = 0, Population = 4.
00-
---
00-
---

Generation = 1, Population = 8.
110
---
110
00-

Generation = 2, Population = 4.
*-1
---
-*1
---

Generation = 3, Population = 6.
.--
00-
1.*
-00

Generation = 4, Population = 5.
.1-
-1-
*.*
-1-

Generation = 5, Population = 5.
.*1
-*-
*.*
---

*** Life<Cell> 3x3 ***

Generation = 0, Population = 4.
0-0
---
0-0

Generation = 1, Population = 0.
---
---
---

Generation = 2, Population = 0.
---
---
---

Generation = 3, Population = 0.
---
---
---

Generation = 4, Population = 0.
---
---
---

Generation = 5, Population = 0.
---
---
---

*** Life<Cell> 4x4 ***

Generation = 0, Population = 8.
0-0-
0-0-
0-0-
0-0-

Generation = 1, Population = 8.
1-10
---0
---0
1-10

Generation = 2, Population = 4.
--*-
0---
0---
--*-

Generation = 3, Population = 12.
10.0
100-
100-
10.0

Generation = 4, Population = 2.
--.-
*---
*---
--.-

Generation = 5, Population = 4.
1-.-
.0--
.0--
1-.-

*** Life<Cell> 1x1 ***

Generation = 0, Population = 0.
-

Generation = 1, Population = 0.
-

Generation = 2, Population = 0.
-

Generation = 3, Population = 0.
-

Generation = 4, Population = 0.
-

Generation = 5, Population = 0.
-

*** Life<Cell> 3x3 ***

Generation = 0, Population = 8.
000
0-0
000

Generation = 1, Population = 0.
---
---
---

Generation = 2, Population = 0.
---
---
---

Generation = 3, Population = 0.
---
---
---

Generation = 4, Population = 0.
---
---
---

Generation = 5, Population = 0.
---
---
---

*** Life<Cell> 3x3 ***

Generation = 0, Population = 4.
-0-
0-0
-0-

Generation = 1, Population = 0.
---
---
---

Generation = 2, Population = 0.
---
---
---

Generation = 3, Population = 0.
---
---
---

Generation = 4, Population = 0.
---
---
---

Generation = 5, Population = 0.
---
---
---
